[{"id":"12312312","name":"Carmel","img":"assets/images/dev/persons/man2.png","obsCount":50},
    {"id":"12312312","name":"Carmel Neta","img":"assets/images/dev/persons/girl.png","obsCount":50},
    {"id":"12312312","name":"Dov Rov","img":"assets/images/dev/persons/man1.png","obsCount":50},
    {"id":"12312312","name":"Carmel","img":"assets/images/dev/persons/female.png","obsCount":50},
    {"id":"12312312","name":"Carmel","img":"assets/images/dev/persons/grema.png","obsCount":50},
    {"id":"12312312","name":"Carmel","img":"assets/images/dev/persons/grema.png","obsCount":50}
]